<!-- Generated by IcoMoon.io -->
<svg version="1.1" xmlns="http://www.w3.org/2000/svg" width="32" height="32" viewBox="0 0 32 32">
<title>ct03</title>
<path d="M15.763 15.418c0.32 0.32 0.32 0.845 0 1.171l-7.264 7.258c-0.16 0.16-0.371 0.243-0.582 0.243s-0.422-0.083-0.582-0.243c-0.32-0.32-0.32-0.845 0-1.171l6.675-6.675-6.925-6.925c-0.32-0.32-0.32-0.845 0-1.171 0.32-0.32 0.845-0.32 1.171 0l7.507 7.514zM26.003 15.418l-7.514-7.514c-0.32-0.32-0.845-0.32-1.171 0-0.32 0.32-0.32 0.845 0 1.171l6.931 6.925-6.682 6.682c-0.32 0.32-0.32 0.845 0 1.171 0.16 0.16 0.371 0.243 0.582 0.243s0.422-0.083 0.582-0.243l7.264-7.264c0.326-0.326 0.326-0.851 0.006-1.171z"></path>
</svg>
