<!-- Generated by IcoMoon.io -->
<svg version="1.1" xmlns="http://www.w3.org/2000/svg" width="32" height="32" viewBox="0 0 32 32">
<title>wa2050</title>
<path d="M9.235 19.917l-2.080-1.069c-0.474-0.25-0.762-0.736-0.749-1.293l-0.032-8.838c0-0.032 0.013-0.064 0.013-0.096l8.902 4.691v1.056l0.576-0.026c0.269-0.013 0.557 0.013 0.845 0.064v-1.088l9.114-4.787c0.006 0.045 0.006 0.083 0.006 0.128v8.73c0 0.448-0.211 0.864-0.563 1.126l0.979 1.024c0.627-0.531 1.005-1.306 1.005-2.15v-8.73c0-1.075-0.595-2.042-1.549-2.522l-8.41-4.25c-0.813-0.41-1.786-0.403-2.592 0.019l-8.237 4.339c-0.909 0.48-1.485 1.414-1.51 2.458l0.032 8.838c-0.019 1.075 0.557 2.054 1.517 2.56l2.675 1.376c-0.026-0.25-0.032-0.493-0.013-0.723l0.070-0.838zM15.36 3.162c0.403-0.211 0.883-0.218 1.293-0.013l8.333 4.218-8.986 4.723-8.794-4.634 8.154-4.294zM24.525 22.733l-5.805-6.074c-0.653-0.685-1.869-1.171-2.803-1.126l-3.168 0.134c-1.101 0.045-2.035 0.941-2.131 2.035l-0.275 3.162c-0.083 0.941 0.346 2.17 0.998 2.854l5.805 6.074c0.378 0.397 0.883 0.621 1.434 0.634 0.019 0 0.032 0 0.045 0 0.531 0 1.030-0.198 1.414-0.563l4.422-4.224c0.813-0.794 0.845-2.093 0.064-2.906zM23.482 24.602l-4.422 4.224c-0.122 0.115-0.301 0.173-0.448 0.173-0.173-0.006-0.326-0.070-0.442-0.192l-5.805-6.074c-0.371-0.384-0.659-1.216-0.614-1.747l0.275-3.162c0.032-0.378 0.397-0.73 0.781-0.742l3.168-0.134c0.019 0 0.032 0 0.051 0 0.531 0 1.312 0.32 1.67 0.691l5.805 6.074c0.115 0.122 0.179 0.282 0.173 0.448s-0.070 0.326-0.192 0.442zM26.195 27.066l-3.302 3.155c-0.134 0.128-0.314 0.198-0.486 0.198-0.186 0-0.371-0.070-0.512-0.218-0.269-0.282-0.262-0.73 0.026-0.998l3.302-3.155c1.050-1.005 1.088-2.675 0.083-3.731l-4.102-4.288c-0.269-0.282-0.262-0.73 0.026-0.998 0.282-0.269 0.73-0.262 0.998 0.026l4.102 4.288c1.536 1.606 1.478 4.179-0.134 5.722zM13.011 18.106c-0.621 0.595-0.64 1.581-0.051 2.195 0.288 0.301 0.672 0.474 1.088 0.48 0.013 0 0.026 0 0.038 0 0.403 0 0.781-0.154 1.075-0.429 0.301-0.288 0.467-0.672 0.48-1.088 0.006-0.416-0.141-0.806-0.429-1.107-0.595-0.621-1.581-0.64-2.202-0.051zM14.509 19.674c-0.115 0.115-0.269 0.166-0.435 0.166-0.166-0.006-0.314-0.070-0.429-0.186-0.23-0.243-0.224-0.627 0.019-0.864 0.115-0.115 0.269-0.166 0.422-0.166 0.16 0 0.32 0.064 0.442 0.186 0.115 0.115 0.173 0.275 0.166 0.435 0 0.166-0.064 0.314-0.186 0.429z"></path>
</svg>
