<!-- Generated by IcoMoon.io -->
<svg version="1.1" xmlns="http://www.w3.org/2000/svg" width="32" height="32" viewBox="0 0 32 32">
<title>wa6020</title>
<path d="M24.026 7.757l-6.406-3.213c-0.858-0.429-2.157-0.429-3.014 0l-6.406 3.213c-0.902 0.454-1.581 1.555-1.581 2.56v6.144c0 1.005 0.678 2.106 1.581 2.56l1.933 0.966c0.115-0.467 0.282-0.915 0.493-1.331l-1.792-0.896c-0.422-0.211-0.8-0.832-0.8-1.299v-6.061l7.277 3.475 0.019 1.51c0.23-0.026 0.467-0.045 0.704-0.045s0.474 0.019 0.704 0.045l-0.019-1.523 7.462-3.744c0.013 0.064 0.019 0.134 0.019 0.198v6.144c0 0.467-0.384 1.088-0.8 1.299l-1.926 0.966c0.211 0.422 0.371 0.87 0.48 1.338l2.080-1.043c0.902-0.454 1.581-1.555 1.581-2.56v-6.144c-0.006-1.005-0.691-2.106-1.587-2.56zM15.994 12.646l-7.347-3.507c0.058-0.045 0.122-0.090 0.179-0.122l6.406-3.213c0.23-0.115 0.55-0.173 0.877-0.173s0.646 0.058 0.877 0.173l6.323 3.168-7.315 3.674zM24.41 27.821l-4.096-3.808c-0.032-0.026-0.064-0.045-0.090-0.070 0.448-0.736 0.704-1.6 0.704-2.522 0-2.701-2.202-4.902-4.902-4.902s-4.902 2.202-4.902 4.902 2.202 4.902 4.902 4.902c1.107 0 2.125-0.371 2.95-0.998 0.019 0.019 0.038 0.045 0.058 0.064l4.096 3.808c0.179 0.166 0.41 0.25 0.64 0.25 0.25 0 0.506-0.102 0.691-0.301 0.346-0.371 0.326-0.966-0.051-1.325zM16.026 24.915c-1.926 0-3.488-1.568-3.488-3.494s1.568-3.494 3.488-3.494 3.488 1.568 3.488 3.494-1.562 3.494-3.488 3.494zM4.8 17.011c-0.179 0-0.358-0.070-0.499-0.205l-3.264-3.264c-0.134-0.134-0.205-0.314-0.205-0.499s0.077-0.365 0.205-0.499l3.155-3.155c0.275-0.275 0.723-0.275 0.998 0s0.275 0.723 0 0.998l-2.662 2.662 2.765 2.765c0.275 0.275 0.275 0.723 0 0.998-0.128 0.128-0.314 0.198-0.493 0.198zM27.2 17.011c-0.179 0-0.358-0.070-0.499-0.205-0.275-0.275-0.275-0.723 0-0.998l2.765-2.765-2.662-2.662c-0.275-0.275-0.275-0.723 0-0.998s0.723-0.275 0.998 0l3.155 3.155c0.134 0.134 0.205 0.314 0.205 0.499s-0.077 0.365-0.205 0.499l-3.264 3.264c-0.134 0.141-0.314 0.211-0.493 0.211z"></path>
</svg>
