<!-- Generated by IcoMoon.io -->
<svg version="1.1" xmlns="http://www.w3.org/2000/svg" width="36" height="32" viewBox="0 0 36 32">
<title>wa7011</title>
<path d="M24.109 16.122h-5.606v-4.333h6.931v3.014l1.402-1.402v-7.661c0-0.608-0.493-1.101-1.101-1.101h-15.866c-0.608 0-1.101 0.493-1.101 1.101v16.448c0 0.384 0.314 0.704 0.704 0.704s0.704-0.314 0.704-0.704v-4.666h6.931v4.666c0 0.384 0.314 0.704 0.704 0.704s0.704-0.314 0.704-0.704v-4.666h4.205l1.389-1.402zM18.502 6.048h6.931v4.339h-6.931v-4.339zM17.101 16.122h-6.931v-4.333h6.931v4.333zM17.101 10.381h-6.931v-4.333h6.931v4.333zM35.078 12.333l-1.491-1.491c-0.678-0.678-1.862-0.678-2.541 0l-1.382 1.382c0 0 0 0 0 0s0 0 0 0l-7.635 7.629c-0.102 0.102-0.192 0.218-0.269 0.346l-2.253 3.744c-0.435 0.717-0.326 1.6 0.269 2.195 0.352 0.352 0.8 0.531 1.261 0.531 0.32 0 0.64-0.083 0.934-0.262l3.744-2.253c0.128-0.077 0.243-0.166 0.346-0.269l9.011-9.011c0.339-0.339 0.525-0.787 0.525-1.267 0.006-0.486-0.179-0.934-0.518-1.274zM21.254 25.203v0c-0.237 0.141-0.416 0.006-0.48-0.058s-0.205-0.243-0.058-0.48l0.211-0.346 0.678 0.678-0.352 0.205zM25.069 22.893c-0.019 0.019-0.051 0.045-0.077 0.058l-2.157 1.299-1.171-1.171 1.299-2.157c0.013-0.026 0.038-0.051 0.058-0.077l7.136-7.136 2.048 2.048-7.136 7.136zM34.086 13.882l-0.89 0.89-2.048-2.048 0.89-0.89c0.077-0.077 0.173-0.115 0.275-0.115s0.205 0.038 0.282 0.115l1.491 1.491c0.077 0.077 0.115 0.173 0.115 0.282 0 0.102-0.038 0.198-0.115 0.275z"></path>
</svg>
