<!-- Generated by IcoMoon.io -->
<svg version="1.1" xmlns="http://www.w3.org/2000/svg" width="36" height="32" viewBox="0 0 36 32">
<title>wa9144</title>
<path d="M12.019 8.32c-0.032-0.646-0.25-1.12-0.653-1.395-0.512-0.358-1.062-0.211-1.165-0.179l-0.096 0.032-5.203 3.507c-0.506 0.339-0.87 1.024-0.87 1.632v16.16c0 0.435 0.192 0.794 0.525 0.986 0.154 0.090 0.326 0.134 0.499 0.134 0.205 0 0.416-0.058 0.621-0.179l5.242-3.091c1.165-0.851 1.101-2.342 1.094-2.362 0.013-0.576 0.064-14.042 0.006-15.245zM10.605 23.59c0 0.006 0.019 0.774-0.493 1.178l-4.653 2.739v-15.59c0-0.128 0.134-0.384 0.243-0.454l4.877-3.29c0.013 0.051 0.026 0.122 0.026 0.218 0.058 1.165 0 15.027 0 15.2zM20.685 14.355c0.429-0.614 0.934-1.37 1.414-2.189v15.91c0 0.429-0.186 0.787-0.512 0.986-0.166 0.102-0.352 0.154-0.55 0.154-0.186 0-0.378-0.045-0.563-0.141l-6.208-3.123c-1.082-0.678-1.312-1.856-1.28-2.438-0.006-0.41-0.045-8.717-0.026-12.915 0.416 0.87 0.922 1.728 1.414 2.496 0 3.328 0.019 7.654 0.032 10.458 0 0.070-0.019 0.781 0.589 1.184l5.69 2.861v-13.242zM17.952 2.515c-2.637 0-4.781 2.144-4.781 4.781 0 2.419 3.418 6.957 3.808 7.469 0.243 0.314 0.595 0.499 0.966 0.499s0.73-0.179 0.966-0.499c0.39-0.512 3.808-5.050 3.808-7.469 0.013-2.637-2.131-4.781-4.768-4.781zM17.952 13.696c-1.363-1.824-3.36-4.992-3.36-6.4 0-1.856 1.51-3.36 3.36-3.36s3.36 1.51 3.36 3.36c0.006 1.408-1.997 4.582-3.36 6.4zM17.843 5.158c-1.248 0-2.259 1.011-2.259 2.259s1.011 2.259 2.259 2.259c1.248 0 2.259-1.011 2.259-2.259s-1.011-2.259-2.259-2.259zM17.843 8.499c-0.595 0-1.075-0.486-1.075-1.075s0.486-1.075 1.075-1.075c0.595 0 1.075 0.486 1.075 1.075s-0.48 1.075-1.075 1.075zM25.171 27.117c0.198 0.435 0.442 0.838 0.73 1.216l-1.158 0.685c-0.205 0.122-0.416 0.179-0.621 0.179-0.173 0-0.346-0.045-0.499-0.134-0.333-0.192-0.525-0.55-0.525-0.986v-16.16c0-0.608 0.365-1.293 0.864-1.632l5.203-3.507 0.096-0.032c0.102-0.032 0.653-0.179 1.165 0.179 0.397 0.275 0.621 0.749 0.653 1.395 0.038 0.71 0.032 5.722 0.019 9.811-0.045 0-0.096-0.006-0.141-0.006-0.435 0-0.864 0.045-1.274 0.128 0.013-4.102 0.019-9.178-0.019-9.862-0.006-0.096-0.019-0.173-0.026-0.218l-4.877 3.29c-0.109 0.070-0.243 0.326-0.243 0.454v15.59l0.653-0.39zM30.957 22.707c-1.005 0-1.824 0.819-1.824 1.824s0.819 1.824 1.824 1.824c1.005 0 1.824-0.819 1.824-1.824s-0.819-1.824-1.824-1.824zM30.957 25.171c-0.352 0-0.646-0.288-0.646-0.646 0-0.352 0.288-0.646 0.646-0.646 0.352 0 0.646 0.288 0.646 0.646-0.006 0.358-0.294 0.646-0.646 0.646zM35.245 23.078l-0.614-0.070 0.39-0.486c0.237-0.294 0.211-0.717-0.058-0.986l-1.018-1.018c-0.269-0.262-0.691-0.288-0.986-0.051l-0.486 0.39-0.070-0.614c-0.038-0.378-0.358-0.659-0.736-0.659h-1.44c-0.371 0-0.698 0.288-0.736 0.659l-0.070 0.614-0.486-0.384c-0.288-0.23-0.723-0.211-0.986 0.051l-1.018 1.018c-0.269 0.269-0.288 0.691-0.058 0.986l0.39 0.486-0.614 0.070c-0.371 0.038-0.659 0.365-0.659 0.736v1.44c0 0.371 0.288 0.698 0.659 0.736l0.614 0.070-0.39 0.486c-0.23 0.288-0.205 0.723 0.058 0.986l1.018 1.018c0.262 0.262 0.698 0.288 0.986 0.058l0.486-0.39 0.070 0.614c0.038 0.371 0.365 0.659 0.736 0.659h1.44c0.371 0 0.698-0.288 0.736-0.659l0.070-0.614 0.486 0.39c0.294 0.237 0.717 0.211 0.986-0.058l1.018-1.037c0.262-0.262 0.288-0.698 0.051-0.986l-0.39-0.486 0.614-0.070c0 0 0 0 0 0 0.371-0.038 0.659-0.365 0.659-0.736v-1.44c0.006-0.365-0.282-0.685-0.653-0.723zM34.726 24.858l-0.595 0.064c-0.301 0.032-0.57 0.243-0.659 0.499l-0.096 0.237c-0.128 0.269-0.083 0.614 0.102 0.845l0.371 0.467-0.461 0.461-0.467-0.371c-0.23-0.186-0.57-0.224-0.819-0.109l-0.237 0.096c-0.282 0.102-0.486 0.371-0.525 0.666l-0.064 0.595h-0.646l-0.064-0.595c-0.032-0.294-0.243-0.563-0.499-0.659l-0.237-0.096c-0.269-0.128-0.608-0.083-0.845 0.102l-0.467 0.371-0.461-0.461 0.371-0.467c0.186-0.237 0.23-0.576 0.109-0.819l-0.096-0.237c-0.102-0.282-0.371-0.493-0.666-0.525l-0.595-0.064v-0.646l0.595-0.064c0.294-0.032 0.563-0.243 0.659-0.499l0.096-0.237c0.128-0.269 0.083-0.608-0.102-0.845l-0.371-0.467 0.461-0.461 0.467 0.371c0.237 0.186 0.576 0.23 0.819 0.115l0.237-0.096c0.282-0.102 0.493-0.371 0.525-0.666l0.064-0.595h0.646l0.064 0.595c0.032 0.294 0.243 0.563 0.499 0.659l0.237 0.096c0.269 0.128 0.608 0.083 0.845-0.102l0.467-0.371 0.461 0.461-0.371 0.467c-0.186 0.23-0.23 0.576-0.115 0.819l0.096 0.237c0.102 0.282 0.371 0.493 0.666 0.525l0.595 0.064v0.64z"></path>
</svg>
